<svg xmlns="http://www.w3.org/2000/svg" viewBox="0 0 1250 170">
	<defs>
		<style>.cls-1{fill:none;stroke:#fff;stroke-miterlimit:10;stroke-width:2px;}.cls-2{fill:#fff;}</style>
	</defs>                           
	<path 
		class="cls-1"
		d="M 0 110 C 820,270 722,-100 1920,220 V 359 H 0 V 67 Z">    
		<animate 
			repeatCount="indefinite" 
			fill="#454599" 
			attributeName="d" 
			dur="20s" 
			values="
				M 0 110 C 820,270 722,-100 1920,220 V 359 H 0 V 67 Z;
				M 0 150 C 473,-40 1222,283 1920,136 V 359 H 0 V 67 Z;
				M 0 110 C 820,270 722,-100 1920,220 V 359 H 0 V 67 Z
			">
		</animate>
	</path>  
	<path
		class="cls-2"
		d="M 0 170 C 822,-50 473,293 1920,60 V 359 H 0 V 67 Z"> 
		<animate 
			repeatCount="indefinite" 
			fill="#454599" 
			attributeName="d" 
			dur="20s" 
			values="
				M 0 170 C 822,-50 473,293 1920,60 V 359 H 0 V 67 Z;
				M0 77  C 473,-40 1222,283 1920,136 V 359 H 0 V 67 Z;
				M0 77 C 973,260 1722,-53 1920,120 V 359 H 0 V 67 Z;
				M 0 170 C 822,-50 473,293 1920,60 V 359 H 0 V 67 Z;
			">
		</animate>
	</path> 
</svg>